Randomly select samples for various probability-based methods • SampleSelectR
…
ipeds_srs
#> # A tidytable: 500 × 18
#>    OBEREG      UNITID INSTNM STABBR  FIPS ICLEVEL SECTOR LOCALE DEGGRANT HLOFFER
#>    <fct>        <dbl> <chr>  <chr>  <dbl> <fct>   <fct>  <fct>  <fct>    <fct>  
#>  1 Southeast … 101028 Chatt… AL         1 At lea… Publi… Subur… Degree-… At lea…
#>  2 Southeast … 101602 Lurle… AL         1 At lea… Publi… Rural… Degree-… Associ…
#>  3 Southeast … 101879 Unive… AL         1 Four o… Publi… City:… Degree-… Doctor…
#>  4 Southeast … 102049 Samfo… AL         1 Four o… Priva… Subur… Degree-… Doctor…
#>  5 Southeast … 102313 H Cou… AL         1 At lea… Publi… City:… Degree-… Associ…
#>  6 Southeast … 107318 Arkan… AR         5 At lea… Publi… Subur… Degree-… Associ…
#>  7 Southeast … 107460 North… AR         5 At lea… Publi… Town:… Degree-… At lea…
#>  8 Southeast … 132842 Albiz… FL        12 Four o… Priva… City:… Degree-… Doctor…
#>  9 Southeast … 133386 Dayto… FL        12 Four o… Publi… City:… Degree-… Bachel…
#> 10 Southeast … 133881 Flori… FL        12 Four o… Priva… City:… Degree-… Doctor…
#> # ℹ 490 more rows
#> # ℹ 8 more variables: ENRTOT <dbl>, EFUG <dbl>, EFUG1ST <dbl>, EFUGFT <dbl>,
#> #   EFGRAD <dbl>, EFGRADFT <dbl>, SelectionProbability <dbl>,
#> #   SamplingWeight <dbl>
…
ipeds_pps
#> # A tidytable: 474 × 19
#>    OBEREG      UNITID INSTNM STABBR  FIPS ICLEVEL SECTOR LOCALE DEGGRANT HLOFFER
#>    <fct>        <dbl> <chr>  <chr>  <dbl> <fct>   <fct>  <fct>  <fct>    <fct>  
#>  1 Southeast … 100663 Unive… AL         1 Four o… Publi… City:… Degree-… Doctor…
#>  2 Southeast … 100751 The U… AL         1 Four o… Publi… City:… Degree-… Doctor…
#>  3 Southeast … 100858 Aubur… AL         1 Four o… Publi… City:… Degree-… Doctor…
#>  4 Southeast … 101480 Jacks… AL         1 Four o… Publi… Subur… Degree-… Doctor…
#>  5 Southeast … 102368 Troy … AL         1 Four o… Publi… Town:… Degree-… Doctor…
#>  6 Southeast … 106397 Unive… AR         5 Four o… Publi… City:… Degree-… Doctor…
#>  7 Southeast … 106467 Arkan… AR         5 Four o… Publi… Town:… Degree-… Doctor…
#>  8 Southeast … 132693 Easte… FL        12 Four o… Publi… City:… Degree-… Bachel…
#>  9 Southeast … 132851 Colle… FL        12 Four o… Publi… City:… Degree-… Bachel…
#> 10 Southeast … 132903 Unive… FL        12 Four o… Publi… Subur… Degree-… Doctor…
#> # ℹ 464 more rows
#> # ℹ 9 more variables: ENRTOT <dbl>, EFUG <dbl>, EFUG1ST <dbl>, EFUGFT <dbl>,
#> #   EFGRAD <dbl>, EFGRADFT <dbl>, SamplingWeight <dbl>, NumberHits <int>,
#> #   ExpectedHits <dbl>
…
