…
    ## left_join: added 3 columns (Hisp, Race1, RaceEthShort)
    ##            > rows only in x               0
    ##            > rows only in vars_reth (     0)
    ##            > matched rows            45,664
    ##            >                        ========
    ##            > rows total              45,664
    ## summarize: now 39,956 rows and 6 columns, ungrouped
    ## pivot_wider: reorganized (RaceEthShort, pct) into (Pop_Pct_White_NH, Pop_Pct_Black_NH, Pop_Pct_AIAN_NH, Pop_Pct_Asian_NH, Pop_Pct_NHPI_NH, …) [was 39956x6, now 5708x11]

``` r
dat_reth
```

    ## # A tibble: 5,708 × 11
    ##    GEOID   NAME  Pop_Tot Level Pop_Pct_White_NH Pop_Pct_Black_NH Pop_Pct_AIAN_NH
    ##    <chr>   <chr>   <dbl> <chr>            <dbl>            <dbl>           <dbl>
    ##  1 0100100 Laud…  184663 PUMA              79.4            10.5            0.153
    ##  2 0100200 Lime…  107577 PUMA              73.5            12.6            0.316
    ##  3 0100300 Morg…  156924 PUMA              73.4            12.0            0.979
    ##  4 0100401 Madi…  115400 PUMA              71.6            17.3            0.572
    ##  5 0100402 Hunt…  161229 PUMA              51.1            34.3            0.386
    ##  6 0100403 Hunt…  107475 PUMA              66.4            18.3            0.246
    ##  7 0100501 Mars…  111743 PUMA              78.2             2.40           0.184
    ##  8 0100600 DeKa…  124785 PUMA              82.3             2.01           0.449
    ##  9 0100700 Etow…  128432 PUMA              79.3            12.8            0.164
    ## 10 0100800 Calh…  116141 PUMA              69.8            21.6            0.162
    ## # ℹ 5,698 more rows
    ## # ℹ 4 more variables: Pop_Pct_Asian_NH <dbl>, Pop_Pct_NHPI_NH <dbl>,
    ## #   Pop_Pct_Other_NH <dbl>, Pop_Pct_Hispanic <dbl>
…
    ## left_join: added 2 columns (Occupancy, OccShort)
    ##            > rows only in x             0
    ##            > rows only in vars_hu (     0)
    ##            > matched rows          11,416
    ##            >                      ========
    ##            > rows total            11,416
    ## rename: renamed one variable (HU_Tot)
    ## mutate: new variable 'pct' (double) with 11,068 unique values and 0% NA
    ## pivot_wider: reorganized (variable, estimate, moe, summary_moe, Occupancy, …) into (HU_Pct_Occupied, HU_Pct_Vacant) [was 11416x11, now 5708x6]

``` r
dat_hu
```

    ## # A tibble: 5,708 × 6
    ##    GEOID   NAME                       HU_Tot Level HU_Pct_Occupied HU_Pct_Vacant
    ##    <chr>   <chr>                       <dbl> <chr>           <dbl>         <dbl>
    ##  1 0100100 Lauderdale, Colbert & Fra…  86653 PUMA             86.1         13.9 
    ##  2 0100200 Limestone County PUMA; Al…  43487 PUMA             92.0          7.97
    ##  3 0100300 Morgan & Lawrence Countie…  68886 PUMA             89.9         10.1 
    ##  4 0100401 Madison County (North & E…  47001 PUMA             94.5          5.45
    ##  5 0100402 Huntsville (North & Far W…  70915 PUMA             93.1          6.94
    ##  6 0100403 Huntsville City (Central …  51732 PUMA             91.4          8.64
    ##  7 0100501 Marshall & Madison (Far S…  46592 PUMA             87.4         12.6 
    ##  8 0100600 DeKalb & Jackson Counties…  55650 PUMA             84.7         15.3 
    ##  9 0100700 Etowah & Cherokee Countie…  62150 PUMA             79.9         20.1 
    ## 10 0100800 Calhoun County PUMA; Alab…  53271 PUMA             84.7         15.3 
    ## # ℹ 5,698 more rows
…
    ## left_join: added 3 columns (Type, Range, AgeShort)
    ##            > rows only in x               0
    ##            > rows only in vars_age (      0)
    ##            > matched rows           102,744
    ##            >                       =========
    ##            > rows total             102,744
    ## summarize: now 51,372 rows and 5 columns, ungrouped
    ## pivot_wider: reorganized (AgeShort, pct) into (Pop_Pct_0004, Pop_Pct_0509, Pop_Pct_1014, Pop_Pct_2544, Pop_Pct_4564, …) [was 51372x5, now 5708x12]

``` r
dat_age
```

    ## # A tibble: 5,708 × 12
    ##    GEOID   NAME        Level Pop_Pct_0004 Pop_Pct_0509 Pop_Pct_1014 Pop_Pct_2544
    ##    <chr>   <chr>       <chr>        <dbl>        <dbl>        <dbl>        <dbl>
    ##  1 0100100 Lauderdale… PUMA           5.5          5.6          6.3         23.6
    ##  2 0100200 Limestone … PUMA           5.5          6.3          6.4         27.4
    ##  3 0100300 Morgan & L… PUMA           6            6.2          6.7         24.4
    ##  4 0100401 Madison Co… PUMA           6.1          6.2          7.3         24.9
    ##  5 0100402 Huntsville… PUMA           5.4          5.9          6.3         28.7
    ##  6 0100403 Huntsville… PUMA           5.9          5.3          4.7         26.5
    ##  7 0100501 Marshall &… PUMA           6.9          6.6          8.1         24.4
    ##  8 0100600 DeKalb & J… PUMA           5.6          5.5          7.4         23.7
    ##  9 0100700 Etowah & C… PUMA           5.5          5.4          6.4         23.5
    ## 10 0100800 Calhoun Co… PUMA           5.6          5.5          6.4         24.6
    ## # ℹ 5,698 more rows
    ## # ℹ 5 more variables: Pop_Pct_4564 <dbl>, Pop_Pct_6574 <dbl>,
    ## #   Pop_Pct_75plus <dbl>, Pop_Pct_1517 <dbl>, Pop_Pct_1824 <dbl>
…
